{
  "servers": [
    {
      "host": "104.236.166.98",
      "username": "root",
      "pem": "~/.ssh/id_rsa",
      "env": {
        "MONGO_URL":"mongodb://172.17.0.1/acesso"
      }
    }
  ],

  "setupMongo": false,

  "appName": "acessoApp",

  "app": ".",

  "env": {
    "PORT": 9000,
    "UPSTART_UID": "meteoruser",
    "ROOT_URL": "https://acesso.technotronics.cc"
  },

  "deployCheckWaitTime": 60,

  "enableUploadProgressBar": true
}
